finalProject/2_15/tb_seq_detect.vcd
$date
	Sun Nov 24 11:58:17 2019
$end
$version
	Icarus Verilog
$end
$timescale
	1ns
$end
$scope module tb_seq_detect $end
$var wire 1 ! p_flag $end
$var reg 36 " data [35:0] $end
$var reg 1 # p_clk $end
$var reg 1 $ p_din $end
$var reg 1 % p_rst_n $end
$var integer 32 & k [31:0] $end
$scope module dec $end
$var wire 1 # clk $end
$var wire 1 $ din $end
$var wire 1 % rst_n $end
$var reg 1 ! flag $end
$var reg 9 ' state [8:0] $end
$upscope $end
$upscope $end
$enddefinitions $end
#0
$dumpvars
bx '
bx &
0%
x$
1#
b11000010011010011011001000011101 "
x!
$end
#50
0!
b1 '
0#
#70
b0 &
1%
#100
1#
#150
b0x000x0 '
0#
#170
b1 &
b110000100110100110110010000111010 "
0$
#200
1#
#250
b1 '
0#
#270
b10 &
b1100001001101001101100100001110100 "
#300
1#
#350
b100000 '
0#
#370
b11 &
b11000010011010011011001000011101000 "
#400
1#
#450
0#
#470
b100 &
b110000100110100110110010000111010000 "
#500
1#
#550
0#
#570
b101 &
b100001001101001101100100001110100000 "
1$
#600
1#
#650
b1000000 '
0#
#670
b110 &
b10011010011011001000011101000000 "
#700
1#
#750
b10000000 '
0#
#770
b111 &
b100110100110110010000111010000000 "
0$
#800
1#
#850
1!
b100000000 '
0#
#870
b1000 &
b1001101001101100100001110100000000 "
#900
1#
#950
0!
b100000 '
0#
#970
b1001 &
b10011010011011001000011101000000000 "
#1000
1#
#1050
0#
#1070
b1010 &
b100110100110110010000111010000000000 "
#1100
1#
#1150
0#
#1170
b1011 &
b1101001101100100001110100000000000 "
1$
#1200
1#
#1250
b1000000 '
0#
#1270
b1100 &
b11010011011001000011101000000000000 "
0$
#1300
1#
#1350
b100000 '
0#
#1370
b1101 &
b110100110110010000111010000000000000 "
#1400
1#
#1450
0#
#1470
b1110 &
b101001101100100001110100000000000000 "
1$
#1500
1#
#1550
b1000000 '
0#
#1570
b1111 &
b10011011001000011101000000000000000 "
#1600
1#
#1650
b10000000 '
0#
#1670
b10000 &
b100110110010000111010000000000000000 "
0$
#1700
1#
#1750
1!
b100000000 '
0#
#1770
b10001 &
b1101100100001110100000000000000000 "
1$
#1800
1#
#1850
b10000 '
0#
#1870
b10010 &
b11011001000011101000000000000000000 "
0$
#1900
1#
#1950
0!
b100000 '
0#
#1970
b10011 &
b110110010000111010000000000000000000 "
#2000
1#
#2050
0#
#2070
b10100 &
b101100100001110100000000000000000000 "
1$
#2100
1#
#2150
b1000000 '
0#
#2170
b10101 &
b11001000011101000000000000000000000 "
#2200
1#
#2250
b10000000 '
0#
#2270
b10110 &
b110010000111010000000000000000000000 "
0$
#2300
1#
#2350
1!
b100000000 '
0#
#2370
b10111 &
b100100001110100000000000000000000000 "
1$
#2400
1#
#2450
b10000 '
0#
#2470
b11000 &
b1000011101000000000000000000000000 "
#2500
1#
#2550
0!
b10000000 '
0#
#2570
b11001 &
b10000111010000000000000000000000000 "
0$
#2600
1#
#2650
1!
b100000000 '
0#
#2670
b11010 &
b100001110100000000000000000000000000 "
#2700
1#
#2750
0!
b100000 '
0#
#2770
b11011 &
b11101000000000000000000000000000 "
1$
#2800
1#
#2850
b1000000 '
0#
#2870
b11100 &
b111010000000000000000000000000000 "
0$
#2900
1#
#2950
b100000 '
0#
#2970
b11101 &
b1110100000000000000000000000000000 "
#3000
1#
#3050
0#
#3070
b11110 &
b11101000000000000000000000000000000 "
#3100
1#
#3150
0#
#3170
b11111 &
b111010000000000000000000000000000000 "
#3200
1#
#3250
0#
#3270
b100000 &
b110100000000000000000000000000000000 "
1$
#3300
1#
#3350
b1000000 '
0#
#3370
b100001 &
b101000000000000000000000000000000000 "
#3400
1#
#3450
b10000000 '
0#
#3470
b100010 &
b10000000000000000000000000000000000 "
#3500
1#
#3550
b100 '
0#
#3570
b100011 &
b100000000000000000000000000000000000 "
0$
#3600
1#
#3650
b1000 '
0#
#3670
b100100 &
b0 "
1$
#3700
1#
#3750
1!
b10000 '
0#
#3800
1#
#3850
0!
b10000000 '
0#
